2019-10-15-big-mtcars
…
library(tidyverse)
theme_set(theme_classic(base_size = 16))

Need to set guess_max to a high value so that the columns are correctly parsed. Using on the first 1000 rows, readr erroneously guesses that some columns are logical.

big_epa_cars <- readr::read_csv("data/big_epa_cars.csv", guess_max = 50000)

What brand of van should I buy?

The EPA’s Greenhouse Gas Rating is a scale from 1 (worst) to 10 (best).

big_epa_cars %>%
  count(VClass)

# A tibble: 34 x 2
   VClass                           n
   <chr>                        <int>
 1 Compact Cars                  5936
 2 Large Cars                    2231
 3 Midsize Cars                  4972
 4 Midsize Station Wagons         552
 5 Midsize-Large Station Wagons   656
 6 Minicompact Cars              1404
 7 Minivan - 2WD                  368
 8 Minivan - 4WD                   50
 9 Small Pickup Trucks            538
10 Small Pickup Trucks 2WD        476
# … with 24 more rows
…
